{
	"colors": [
		{ "r": 180, "g": 180, "b": 180, "a": 255, "name": "kBBColor_Default" },
		{ "r": 61,  "g": 61,  "b": 61,  "a": 255, "name": "kBBColor_Evergreen_Black" },
		{ "r": 255, "g": 51,  "b": 51,  "a": 255, "name": "kBBColor_Evergreen_Red" },
		{ "r": 64,  "g": 255, "b": 64,  "a": 255, "name": "kBBColor_Evergreen_Green" },
		{ "r": 256, "g": 256, "b": 96,  "a": 255, "name": "kBBColor_Evergreen_Yellow" },
		{ "r": 0,   "g": 60,  "b": 255, "a": 255, "name": "kBBColor_Evergreen_Blue" },
		{ "r": 64,  "g": 255, "b": 255, "a": 255, "name": "kBBColor_Evergreen_Cyan" },
		{ "r": 255, "g": 92,  "b": 255, "a": 255, "name": "kBBColor_Evergreen_Pink" },
		{ "r": 180, "g": 180, "b": 180, "a": 255, "name": "kBBColor_Evergreen_White" },
		{ "r": 148, "g": 214, "b": 254, "a": 255, "name": "kBBColor_Evergreen_LightBlue" },
		{ "r": 242, "g": 97,  "b": 64,  "a": 255, "name": "kBBColor_Evergreen_Orange" },
		{ "r": 149, "g": 214, "b": 221, "a": 255, "name": "kBBColor_Evergreen_LightBlueAlt" },
		{ "r": 221, "g": 77,  "b": 48,  "a": 255, "name": "kBBColor_Evergreen_OrangeAlt" },
		{ "r": 89,  "g": 156, "b": 212, "a": 255, "name": "kBBColor_Evergreen_MediumBlue" },
		{ "r": 250, "g": 176, "b": 46,  "a": 255, "name": "kBBColor_Evergreen_Amber" },
		{ "r": 64,  "g": 64,  "b": 64,  "a": 255, "name": "kBBColor_UE4_Black" },
		{ "r": 192, "g": 0,   "b": 0,   "a": 255, "name": "kBBColor_UE4_DarkRed" },
		{ "r": 86,  "g": 158, "b": 86,  "a": 255, "name": "kBBColor_UE4_DarkGreen" },
		{ "r": 64,  "g": 64,  "b": 255, "a": 255, "name": "kBBColor_UE4_DarkBlue" },
		{ "r": 192, "g": 192, "b": 0,   "a": 255, "name": "kBBColor_UE4_DarkYellow" },
		{ "r": 0,   "g": 192, "b": 192, "a": 255, "name": "kBBColor_UE4_DarkCyan" },
		{ "r": 144, "g": 109, "b": 185, "a": 255, "name": "kBBColor_UE4_DarkPurple" },
		{ "r": 128, "g": 128, "b": 128, "a": 255, "name": "kBBColor_UE4_DarkWhite" },
		{ "r": 255, "g": 0,   "b": 0,   "a": 255, "name": "kBBColor_UE4_Red" },
		{ "r": 0,   "g": 192, "b": 0,   "a": 255, "name": "kBBColor_UE4_Green" },
		{ "r": 96,  "g": 96,  "b": 255, "a": 255, "name": "kBBColor_UE4_Blue" },
		{ "r": 224, "g": 224, "b": 0,   "a": 255, "name": "kBBColor_UE4_Yellow" },
		{ "r": 0,   "g": 255, "b": 255, "a": 255, "name": "kBBColor_UE4_Cyan" },
		{ "r": 192, "g": 0,   "b": 192, "a": 255, "name": "kBBColor_UE4_Purple" },
		{ "r": 192, "g": 192, "b": 192, "a": 255, "name": "kBBColor_UE4_White" },
		{ "r": 179, "g": 255, "b": 179, "a": 255, "name": "ActiveSession" },
		{ "r": 153, "g": 153, "b": 153, "a": 255, "name": "InactiveSession" },
		{ "r": 96,  "g": 96,  "b": 96,  "a": 255, "name": "LogLevel_VeryVerbose" },
		{ "r": 128, "g": 128, "b": 128, "a": 255, "name": "LogLevel_Verbose" },
		{ "r": 180, "g": 180, "b": 180, "a": 255, "name": "LogLevel_Log" },
		{ "r": 255, "g": 255, "b": 255, "a": 255, "name": "LogLevel_Display" },
		{ "r": 256, "g": 256, "b": 96,  "a": 255, "name": "LogLevel_Warning" },
		{ "r": 255, "g": 51,  "b": 51,  "a": 255, "name": "LogLevel_Error" },
		{ "r": 255, "g": 0,   "b": 0,   "a": 255, "name": "LogLevel_Fatal" },
		{ "r": 61,  "g": 61,  "b": 61,  "a": 255, "name": "Multiline" },
		{ "r": 0, "g": 0, "b": 0, "a": 0, "name": "LogBackground_Normal" },
		{ "r": 0, "g": 0, "b": 0, "a": 0, "name": "LogBackground_NormalAlternate0" },
		{ "r": 0, "g": 0, "b": 0, "a": 0, "name": "LogBackground_NormalAlternate1" },
		{ "r": 0, "g": 0, "b": 0, "a": 0, "name": "LogBackground_Bookmarked" },
		{ "r": 0, "g": 0, "b": 0, "a": 0, "name": "LogBackground_BookmarkedAlternate0" },
		{ "r": 0, "g": 0, "b": 0, "a": 0, "name": "LogBackground_BookmarkedAlternate1" },
		{ "r": 0, "g": 0, "b": 0, "a": 0, "name": "ResizeNormal" },
		{ "r": 0, "g": 0, "b": 0, "a": 0, "name": "ResizeHovered" },
		{ "r": 0, "g": 0, "b": 0, "a": 0, "name": "ResizeActive" }
	]
}